<?xml version="1.0" encoding="UTF-8"?>
<svg width="21px" height="21px" viewBox="0 0 21 21" version="1.1" xmlns="http://www.w3.org/2000/svg" xmlns:xlink="http://www.w3.org/1999/xlink">
    <g stroke="none" stroke-width="1" fill="none" fill-rule="evenodd">
        <g transform="translate(-603.000000, -228.000000)" fill="#0a9b7f">
            <g transform="translate(603.000000, 228.000000)">
                <path d="M5,13 L8,13 L8,10 L5,10 L5,13 Z M6,12 L7,12 L7,11 L6,11 L6,12 Z"></path>
                <path d="M9,13 L12,13 L12,10 L9,10 L9,13 Z M10,12 L11,12 L11,11 L10,11 L10,12 Z"></path>
                <path d="M13,13 L16,13 L16,10 L13,10 L13,13 Z M14,12 L15,12 L15,11 L14,11 L14,12 Z"></path>
                <path d="M5,17 L8,17 L8,14 L5,14 L5,17 Z M6,16 L7,16 L7,15 L6,15 L6,16 Z"></path>
                <path d="M9,17 L12,17 L12,14 L9,14 L9,17 Z M10,16 L11,16 L11,15 L10,15 L10,16 Z"></path>
                <path d="M13,17 L16,17 L16,14 L13,14 L13,17 Z M14,16 L15,16 L15,15 L14,15 L14,16 Z"></path>
                <path d="M1,6 L20,6 L20,4 L1,4 L1,6 Z M1,20 L20,20 L20,7 L1,7 L1,20 Z M20,3 L15,3 L15,1 C15,0.45 14.55,0 14,0 C13.45,0 13,0.45 13,1 L13,3 L8,3 L8,1 C8,0.45 7.55,0 7,0 C6.45,0 6,0.45 6,1 L6,3 L1,3 C0.45,3 0,3.45 0,4 L0,20 C0,20.55 0.45,21 1,21 L20,21 C20.55,21 21,20.55 21,20 L21,7 L21,6 L21,4 C21,3.45 20.55,3 20,3 L20,3 Z"></path>
            </g>
        </g>
    </g>
</svg>