<svg xmlns="http://www.w3.org/2000/svg" width="30" height="29.04" viewBox="0 0 30 29.04">
  <path fill="#fff" d="M28.5,10.63h0a4.18,4.18,0,0,0-2.71-1H19.44V5.06A5,5,0,0,0,17.71.78,5.51,5.51,0,0,0,13.28.24.83.83,0,0,0,12.7,1V6.23a5,5,0,0,1-2.36,4.2A9.29,9.29,0,0,1,7.82,11.7l-.26.07-.1-.11A2,2,0,0,0,6,11H2a2,2,0,0,0-2,2V26.27a2,2,0,0,0,2,2H6a1.91,1.91,0,0,0,1.25-.46l.17-.14.16.15a4.21,4.21,0,0,0,3,1.22h12.7a5.61,5.61,0,0,0,3.14-.85,4.5,4.5,0,0,0,1.88-3.28l1.64-10.24A4.37,4.37,0,0,0,28.5,10.63ZM6.32,26.27a.3.3,0,0,1-.3.3H2a.3.3,0,0,1-.3-.3V13a.3.3,0,0,1,.3-.3H6a.3.3,0,0,1,.3.3h0Zm22-11.89h0l-1.65,10.3c-.21,1.77-1.34,2.67-3.37,2.67H10.56A2.6,2.6,0,0,1,8,25.16V13.38l.3-.08a10.8,10.8,0,0,0,3-1.48,6.74,6.74,0,0,0,3.1-5.59V1.69h.21a3.13,3.13,0,0,1,2.16.45,3.45,3.45,0,0,1,1,2.86v5.38a.83.83,0,0,0,.83.83h7.17a2.58,2.58,0,0,1,1.64.61,2.76,2.76,0,0,1,.89,2.56Z"/>
</svg>
