<svg xmlns="http://www.w3.org/2000/svg" width="76.8" height="78.66" viewBox="0 0 76.8 78.66">
    <path d="M11.33,12.34l-.83.81-.78.9L9,15,8.4,16.11l-.56,1.15-.49,1.22-.42,1.29-.34,1.37-.27,1.42L6.12,24,6,25.57,6,27.16,6,28.85l.12,1.73.2,1.76.29,1.79L7,36l.44,1.84L8,39.64l.61,1.86.68,1.86L10,45.23l.81,1.84.88,1.83.95,1.79,1,1.78,1.07,1.73,1.12,1.71L17,57.54l1.22,1.59,1.25,1.54,1.3,1.49,1.32,1.4,1.37,1.34,1.37,1.27,1.42,1.17,1.42,1.1,1.42,1,1.44.91,1.44.83,1.45.71,1.42.64,1.42.52,1.4.42,1.37.3,1.35.22,1.34.1H43l1.25-.1,1.2-.22,1.17-.32m-2,1.47,1-.64.93-.73.85-.85.8-.91.73-1,.66-1.1.58-1.18.51-1.27.42-1.34.34-1.4L51.67,63l.19-1.54.1-1.59,0-1.64-.07-1.69-.14-1.74-.24-1.76-.3-1.79-.37-1.83-.47-1.84-.54-1.84-.61-1.84L48.54,42l-.76-1.84L47,38.37l-.9-1.83-1-1.78-1-1.76L43,31.29l-1.13-1.67L40.73,28,39.51,26.4l-1.27-1.52L37,23.4,35.62,22,34.26,20.7l-1.39-1.23-1.4-1.17-1.42-1.08-1.42-1-1.44-.91-1.44-.8-1.44-.71L22.9,13.2l-1.4-.51-1.4-.41L18.72,12l-1.35-.2-1.3-.08-1.29,0-1.23.12-1.2.22-1.15.34-1.1.42-1,.54-1,.63-.93.74-.85.83-.8.93-.73,1L4.1,18.6l-.58,1.18L3,21,2.6,22.39l-.34,1.4L2,25.27,1.8,26.8l-.1,1.59,0,1.66.07,1.69.14,1.73.24,1.78L2.43,37l.37,1.81.47,1.84.54,1.84.61,1.86.69,1.84.76,1.84.83,1.84.88,1.81,1,1.79,1,1.76L10.63,57l1.13,1.67,1.17,1.62,1.22,1.59,1.27,1.52,1.29,1.45L18,66.27l1.35,1.32,1.39,1.25L22.19,70l1.42,1.07,1.42,1,1.44.9,1.44.81,1.44.71,1.42.61,1.4.51,1.4.41,1.37.3,1.35.19,1.3.1,1.29,0,1.23-.12,1.2-.24,1.15-.32,1.1-.44,1-.52M8.13,11.77l-1,.66-.95.74-.9.85-.81.93-.74,1L3,17.1l-.59,1.2-.54,1.27-.44,1.35-.37,1.42-.3,1.51L.59,25.4.45,27,.4,28.68l0,1.71.1,1.76.2,1.79L1,35.77l.36,1.84.42,1.88.52,1.88.58,1.89.66,1.89.73,1.89.81,1.89.86,1.86.93,1.86,1,1.81,1,1.79L10,58l1.17,1.71,1.2,1.67L13.66,63,15,64.56,16.28,66l1.37,1.42L19,68.82l1.42,1.27,1.44,1.2,1.45,1.1,1.45,1,1.47.93,1.47.85,1.47.74,1.45.64,1.44.54,1.44.44,1.4.34,1.39.22,1.35.14,1.34,0,1.29-.08L41.55,78l1.2-.29,1.15-.39L45,76.81l1-.59,1-.71.91-.79.85-.88.8-1,.71-1.07.64-1.15.56-1.23L52,68.06l.41-1.39.34-1.47L53,63.68l.17-1.57.08-1.64,0-1.69L53.19,57,53,55.26l-.24-1.81-.32-1.84-.39-1.86-.47-1.88L51.08,46l-.63-1.89-.69-1.89L49,40.29l-.83-1.88-.9-1.86-1-1.83-1-1.81-1.08-1.78L43,29.39l-1.18-1.67-1.23-1.64-1.27-1.59L38,23l-1.35-1.45-1.37-1.39-1.4-1.32-1.42-1.23L31,16.44l-1.45-1-1.45-1-1.47-.88-1.47-.8L23.71,12l-1.45-.59L20.82,11l-1.42-.39L18,10.28l-1.37-.19L15.29,10l-1.3,0-1.27.14-1.22.24-1.17.34-1.12.46-1.08.54m19.42,3.77-.1,1.07-.07,1.1,0,1.13.05,1.56L27.52,22l.2,1.62L28,25.25l.36,1.67.44,1.69.51,1.71L29.88,32l.64,1.71.73,1.69.8,1.67.85,1.66.91,1.64,1,1.59,1,1.56L36.87,45,38,46.51l1.15,1.4,1.2,1.34,1.22,1.27,1.25,1.22,1.29,1.12,1.29,1,1.32,1,1.32.88,1.32.8,1.32.68,1.3.61M18.65,13.49l-.9.59-.85.68-.76.76-.71.86-.64.95-.58,1-.51,1.1-.42,1.18-.36,1.25-.27,1.32-.2,1.39L12.34,26l0,1.49,0,1.54.12,1.57.2,1.61.27,1.64.36,1.66.42,1.67.51,1.67.58,1.69.64,1.69.71,1.67.76,1.66.85,1.66.9,1.61.95,1.59,1,1.56,1,1.49L22.76,55l1.13,1.4,1.18,1.34L26.28,59l1.25,1.2,1.25,1.13,1.29,1.07,1.29,1,1.3.9L34,65l1.3.71,1.3.61,1.29.52,1.29.42,1.25.32,1.25.22,1.2.12L44,68l1.13-.08,1.1-.19,1-.29,1-.39.95-.47M16.2,11.7l-1,.49-.91.59-.85.68-.81.76-.73.85-.68.93-.61,1-.54,1.08-.47,1.17-.41,1.22-.34,1.3-.25,1.35-.19,1.4L8.33,26l0,1.51,0,1.64.14,1.67.2,1.71L9,34.26,9.31,36l.44,1.78.52,1.79.59,1.79.68,1.79L12.27,45l.81,1.78L14,48.52l.93,1.73,1,1.71,1,1.66L18,55.24l1.15,1.57,1.18,1.51,1.23,1.45,1.27,1.4,1.3,1.32,1.34,1.25,1.34,1.17L28.23,66l1.39,1,1.39.91,1.39.83,1.4.73,1.39.63,1.37.52,1.35.42,1.34.32,1.32.22,1.27.12h1.25l1.22-.08,1.17-.2,1.12-.32,1.07-.41,1-.51,1-.63M49.81,74l-4.28,2.47M49.81,74l1-.66,1-.74.91-.83.86-.91.78-1,.73-1,.64-1.12.58-1.17.49-1.2.44-1.27.37-1.32.29-1.35.24-1.39.15-1.42.1-1.47,0-1.49,0-1.52-.1-1.54-.15-1.56-.22-1.59-.27-1.61-.34-1.61-.41-1.61L56.46,43l-.51-1.62-.56-1.62-.63-1.62-.68-1.61-.73-1.61-.76-1.59-.83-1.56-.86-1.56L50,28.72l-.95-1.49-1-1.45-1-1.44-1-1.39-1.1-1.34-1.12-1.3L42.6,19l-1.17-1.2-1.22-1.15L39,15.59l-1.25-1-1.25-1-1.29-.91-1.29-.86L32.62,11l-1.3-.73L30,9.64l-1.32-.58-1.32-.49L26,8.15l-1.32-.34-1.3-.25-1.3-.17-1.3-.08H19.55l-1.27.1L17,7.59l-1.22.29-1.18.37-1.13.49-1.08.56-4.3,2.47M65.24,59.45l-8,4.58m8-4.58L66,59l.74-.49.71-.52.69-.56.66-.58.63-.59.61-.61.58-.64.54-.64.52-.68.47-.66.46-.69.42-.69.39-.69.69-1.42.59-1.42.49-1.4.39-1.42.3-1.39.22-1.4.17-1.37.08-1.35,0-1.35,0-1.32-.07-1.32-.14-1.3L76,33.18l-.22-1.29-.27-1.25-.3-1.25-.34-1.23-.39-1.23L74,25.72l-.46-1.2-.49-1.18-.52-1.17L72,21l-.59-1.13-.63-1.12-.66-1.1-.68-1.08-.73-1-.74-1-.78-1-.81-1-.83-1-.86-.95-.9-.91-.93-.9-1-.85-1-.85-1-.8-1-.76-1.1-.73-1.15-.69-1.17-.64-1.23-.61L52.9,2.28l-1.32-.49-1.35-.42L48.81,1,47.34.7,45.8.5,44.24.4h-.81l-.81,0-.81.05L41,.54l-.83.12-.83.15L38.48,1l-.83.22-.83.25L36,1.74l-.83.32-.81.36-.8.39-.78.44-8,4.58M49.28,66.56l.54-.34.51-.39.51-.42.46-.47M21.07,12.56l-.64.17L19.8,13l-.59.25-.56.29"
          style="fill:none;stroke:#fff;stroke-linecap:round;stroke-linejoin:round;stroke-width:0.800000011920929px"/>
</svg>